…
arm_dfc
```

    ## # A tibble: 160 × 4
    ##    experiment_group subject_id arm_val week 
    ##    <fct>            <fct>        <dbl> <fct>
    ##  1 Control          1             0.2  1    
    ##  2 Control          2             1.13 1    
    ##  3 Control          3             1.77 1    
    ##  4 Control          4             1.04 1    
    ##  5 Control          5             0.47 1    
    ##  6 Control          6             2.37 1    
    ##  7 Control          7             0.03 1    
    ##  8 Control          8            -0.08 1    
    ##  9 Control          9             0.08 1    
    ## 10 Control          10            2.14 1    
    ## # … with 150 more rows
…
# Problem 3

## The first part of the code was provided by professor

``` r
set.seed(10)

iris_with_missing = iris %>% 
  map_df(~replace(.x, sample(1:150, 20), NA)) %>%
  mutate(Species = as.character(Species))

iris_with_missing
```

    ## # A tibble: 150 × 5
    ##    Sepal.Length Sepal.Width Petal.Length Petal.Width Species
    ##           <dbl>       <dbl>        <dbl>       <dbl> <chr>  
    ##  1          5.1         3.5          1.4         0.2 setosa 
    ##  2          4.9         3            1.4         0.2 setosa 
    ##  3          4.7         3.2          1.3         0.2 setosa 
    ##  4          4.6         3.1          1.5        NA   setosa 
    ##  5          5           3.6          1.4         0.2 setosa 
    ##  6          5.4         3.9          1.7         0.4 setosa 
    ##  7         NA           3.4          1.4         0.3 setosa 
    ##  8          5           3.4          1.5         0.2 setosa 
    ##  9          4.4         2.9          1.4         0.2 setosa 
    ## 10          4.9         3.1         NA           0.1 setosa 
    ## # … with 140 more rows
…
#### Function first checks if the argument that is passed in is a numeric or character and if it is true, then we go to the next conditional statement block or else the function will stop and display an error message.

``` r
iris_values = map_dfr(iris_with_missing, iris_function)
iris_values
```

    ## # A tibble: 150 × 5
    ##    Sepal.Length Sepal.Width Petal.Length Petal.Width Species
    ##           <dbl>       <dbl>        <dbl>       <dbl> <chr>  
    ##  1         5.1          3.5         1.4         0.2  setosa 
    ##  2         4.9          3           1.4         0.2  setosa 
    ##  3         4.7          3.2         1.3         0.2  setosa 
    ##  4         4.6          3.1         1.5         1.19 setosa 
    ##  5         5            3.6         1.4         0.2  setosa 
    ##  6         5.4          3.9         1.7         0.4  setosa 
    ##  7         5.82         3.4         1.4         0.3  setosa 
    ##  8         5            3.4         1.5         0.2  setosa 
    ##  9         4.4          2.9         1.4         0.2  setosa 
    ## 10         4.9          3.1         3.77        0.1  setosa 
    ## # … with 140 more rows
…
